[
  {
    "personId": "9755f276-ee8f-4bad-8ada-e55ba33f87b5",
      "category": {
        "name": "Ноутбуки и компьютеры",
        "color": "reed"
    },
    "pointOnMap": {
      "type": "Point",
      "coordinates": [
        125.6,
        10.1
      ]
    },
    "repairsMade": true
  },
  {
    "personId": "985de2df-caef-4946-99cb-ec06236f8188",
    "category": {
      "name": "Ноутбуки и компьютеры",
      "color": "reed"
    },
    "pointOnMap": {
      "type": "Point",
      "coordinates": [
        125.6,
        10.1
      ]
    },
    "repairsMade": true
  }
]